info face="Liberation Sans" size=36 bold=1 italic=0 charset="" unicode=1 stretchH=100 smooth=1 aa=1 padding=0,0,0,0 spacing=1,1 outline=0
common lineHeight=36 base=29 scaleW=256 scaleH=256 pages=2 packed=0 alphaChnl=0 redChnl=0 greenChnl=0 blueChnl=0
page id=0 file="LiberationSansBold36_0.png"
page id=1 file="LiberationSansBold36_1.png"
chars count=191
char id=32   x=251   y=60    width=1     height=1     xoffset=0     yoffset=0     xadvance=9     page=0  chnl=15
char id=33   x=134   y=0     width=6     height=22    xoffset=2     yoffset=7     xadvance=10    page=1  chnl=15
char id=34   x=132   y=41    width=11    height=9     xoffset=2     yoffset=7     xadvance=15    page=1  chnl=15
char id=35   x=194   y=208   width=18    height=22    xoffset=0     yoffset=7     xadvance=18    page=0  chnl=15
char id=36   x=95    y=61    width=18    height=28    xoffset=0     yoffset=4     xadvance=18    page=0  chnl=15
char id=37   x=184   y=138   width=26    height=22    xoffset=0     yoffset=7     xadvance=26    page=0  chnl=15
char id=38   x=0     y=192   width=21    height=22    xoffset=1     yoffset=7     xadvance=23    page=0  chnl=15
char id=39   x=144   y=41    width=5     height=9     xoffset=1     yoffset=7     xadvance=8     page=1  chnl=15
char id=40   x=84    y=0     width=10    height=30    xoffset=1     yoffset=6     xadvance=11    page=0  chnl=15
char id=41   x=95    y=0     width=10    height=30    xoffset=0     yoffset=6     xadvance=11    page=0  chnl=15
char id=42   x=17    y=41    width=12    height=13    xoffset=0     yoffset=7     xadvance=12    page=1  chnl=15
char id=43   x=55    y=23    width=17    height=17    xoffset=1     yoffset=10    xadvance=19    page=1  chnl=15
char id=44   x=126   y=41    width=5     height=10    xoffset=2     yoffset=24    xadvance=9     page=1  chnl=15
char id=45   x=202   y=36    width=9     height=5     xoffset=1     yoffset=19    xadvance=11    page=1  chnl=15
char id=46   x=247   y=24    width=5     height=5     xoffset=2     yoffset=24    xadvance=9     page=0  chnl=15
char id=47   x=216   y=113   width=9     height=24    xoffset=0     yoffset=6     xadvance=9     page=0  chnl=15
char id=48   x=68    y=0     width=16    height=22    xoffset=1     yoffset=7     xadvance=18    page=1  chnl=15
char id=49   x=118   y=0     width=15    height=22    xoffset=2     yoffset=7     xadvance=18    page=1  chnl=15
char id=50   x=85    y=0     width=16    height=22    xoffset=1     yoffset=7     xadvance=18    page=1  chnl=15
char id=51   x=173   y=232   width=17    height=22    xoffset=0     yoffset=7     xadvance=18    page=0  chnl=15
char id=52   x=137   y=209   width=18    height=22    xoffset=0     yoffset=7     xadvance=18    page=0  chnl=15
char id=53   x=118   y=211   width=18    height=22    xoffset=0     yoffset=7     xadvance=18    page=0  chnl=15
char id=54   x=227   y=231   width=16    height=22    xoffset=1     yoffset=7     xadvance=18    page=0  chnl=15
char id=55   x=34    y=0     width=16    height=22    xoffset=1     yoffset=7     xadvance=18    page=1  chnl=15
char id=56   x=137   y=232   width=17    height=22    xoffset=0     yoffset=7     xadvance=18    page=0  chnl=15
char id=57   x=51    y=0     width=16    height=22    xoffset=1     yoffset=7     xadvance=18    page=1  chnl=15
char id=58   x=129   y=234   width=6     height=17    xoffset=2     yoffset=12    xadvance=10    page=0  chnl=15
char id=59   x=141   y=0     width=6     height=22    xoffset=2     yoffset=12    xadvance=10    page=1  chnl=15
char id=60   x=79    y=237   width=17    height=18    xoffset=1     yoffset=10    xadvance=19    page=0  chnl=15
char id=61   x=30    y=41    width=17    height=12    xoffset=1     yoffset=13    xadvance=19    page=1  chnl=15
char id=62   x=61    y=237   width=17    height=18    xoffset=1     yoffset=10    xadvance=19    page=0  chnl=15
char id=63   x=61    y=214   width=18    height=22    xoffset=1     yoffset=7     xadvance=20    page=0  chnl=15
char id=64   x=114   y=61    width=29    height=27    xoffset=1     yoffset=7     xadvance=31    page=0  chnl=15
char id=65   x=102   y=165   width=23    height=22    xoffset=0     yoffset=7     xadvance=23    page=0  chnl=15
char id=66   x=215   y=184   width=20    height=22    xoffset=1     yoffset=7     xadvance=22    page=0  chnl=15
char id=67   x=173   y=162   width=22    height=22    xoffset=1     yoffset=7     xadvance=23    page=0  chnl=15
char id=68   x=173   y=185   width=20    height=22    xoffset=2     yoffset=7     xadvance=23    page=0  chnl=15
char id=69   x=237   y=138   width=18    height=22    xoffset=2     yoffset=7     xadvance=21    page=0  chnl=15
char id=70   x=155   y=232   width=17    height=22    xoffset=2     yoffset=7     xadvance=20    page=0  chnl=15
char id=71   x=219   y=161   width=22    height=22    xoffset=1     yoffset=7     xadvance=25    page=0  chnl=15
char id=72   x=21    y=215   width=19    height=22    xoffset=1     yoffset=7     xadvance=22    page=0  chnl=15
char id=73   x=244   y=230   width=6     height=22    xoffset=1     yoffset=7     xadvance=8     page=0  chnl=15
char id=74   x=102   y=0     width=15    height=22    xoffset=0     yoffset=7     xadvance=17    page=1  chnl=15
char id=75   x=66    y=191   width=21    height=22    xoffset=2     yoffset=7     xadvance=23    page=0  chnl=15
char id=76   x=191   y=231   width=17    height=22    xoffset=2     yoffset=7     xadvance=20    page=0  chnl=15
char id=77   x=126   y=163   width=23    height=22    xoffset=2     yoffset=7     xadvance=27    page=0  chnl=15
char id=78   x=236   y=184   width=19    height=22    xoffset=1     yoffset=7     xadvance=22    page=0  chnl=15
char id=79   x=150   y=163   width=22    height=22    xoffset=1     yoffset=7     xadvance=24    page=0  chnl=15
char id=80   x=213   y=208   width=18    height=22    xoffset=1     yoffset=7     xadvance=20    page=0  chnl=15
char id=81   x=72    y=61    width=22    height=28    xoffset=1     yoffset=7     xadvance=24    page=0  chnl=15
char id=82   x=44    y=191   width=21    height=22    xoffset=1     yoffset=7     xadvance=22    page=0  chnl=15
char id=83   x=0     y=215   width=20    height=22    xoffset=0     yoffset=7     xadvance=21    page=0  chnl=15
char id=84   x=131   y=186   width=20    height=22    xoffset=0     yoffset=7     xadvance=20    page=0  chnl=15
char id=85   x=110   y=188   width=20    height=22    xoffset=1     yoffset=7     xadvance=22    page=0  chnl=15
char id=86   x=88    y=188   width=21    height=22    xoffset=0     yoffset=7     xadvance=21    page=0  chnl=15
char id=87   x=120   y=140   width=31    height=22    xoffset=0     yoffset=7     xadvance=31    page=0  chnl=15
char id=88   x=22    y=192   width=21    height=22    xoffset=0     yoffset=7     xadvance=21    page=0  chnl=15
char id=89   x=194   y=185   width=20    height=22    xoffset=0     yoffset=7     xadvance=20    page=0  chnl=15
char id=90   x=152   y=186   width=20    height=22    xoffset=0     yoffset=7     xadvance=20    page=0  chnl=15
char id=91   x=73    y=0     width=10    height=30    xoffset=1     yoffset=6     xadvance=11    page=0  chnl=15
char id=92   x=206   y=113   width=9     height=24    xoffset=0     yoffset=6     xadvance=9     page=0  chnl=15
char id=93   x=62    y=0     width=10    height=30    xoffset=0     yoffset=6     xadvance=11    page=0  chnl=15
char id=94   x=207   y=18    width=19    height=15    xoffset=0     yoffset=7     xadvance=19    page=1  chnl=15
char id=95   x=234   y=33    width=20    height=2     xoffset=-1    yoffset=31    xadvance=18    page=1  chnl=15
char id=96   x=186   y=36    width=9     height=6     xoffset=1     yoffset=6     xadvance=11    page=1  chnl=15
char id=97   x=201   y=0     width=19    height=17    xoffset=0     yoffset=12    xadvance=18    page=1  chnl=15
char id=98   x=38    y=144   width=17    height=23    xoffset=1     yoffset=6     xadvance=19    page=0  chnl=15
char id=99   x=178   y=18    width=16    height=17    xoffset=1     yoffset=12    xadvance=18    page=1  chnl=15
char id=100  x=90    y=141   width=16    height=23    xoffset=1     yoffset=6     xadvance=19    page=0  chnl=15
char id=101  x=161   y=20    width=16    height=17    xoffset=1     yoffset=12    xadvance=18    page=1  chnl=15
char id=102  x=107   y=140   width=12    height=23    xoffset=0     yoffset=6     xadvance=11    page=0  chnl=15
char id=103  x=189   y=113   width=16    height=24    xoffset=1     yoffset=12    xadvance=19    page=0  chnl=15
char id=104  x=56    y=141   width=16    height=23    xoffset=2     yoffset=6     xadvance=19    page=0  chnl=15
char id=105  x=247   y=0     width=5     height=23    xoffset=2     yoffset=6     xadvance=10    page=0  chnl=15
char id=106  x=106   y=0     width=8     height=30    xoffset=-1    yoffset=6     xadvance=10    page=0  chnl=15
char id=107  x=73    y=141   width=16    height=23    xoffset=2     yoffset=6     xadvance=18    page=0  chnl=15
char id=108  x=246   y=113   width=5     height=23    xoffset=2     yoffset=6     xadvance=10    page=0  chnl=15
char id=109  x=176   y=0     width=24    height=17    xoffset=2     yoffset=12    xadvance=28    page=1  chnl=15
char id=110  x=73    y=23    width=17    height=17    xoffset=1     yoffset=12    xadvance=19    page=1  chnl=15
char id=111  x=91    y=23    width=17    height=17    xoffset=1     yoffset=12    xadvance=19    page=1  chnl=15
char id=112  x=151   y=88    width=17    height=24    xoffset=1     yoffset=12    xadvance=19    page=0  chnl=15
char id=113  x=104   y=115   width=16    height=24    xoffset=1     yoffset=12    xadvance=19    page=0  chnl=15
char id=114  x=195   y=18    width=11    height=17    xoffset=2     yoffset=12    xadvance=13    page=1  chnl=15
char id=115  x=144   y=23    width=16    height=17    xoffset=1     yoffset=12    xadvance=18    page=1  chnl=15
char id=116  x=117   y=234   width=11    height=21    xoffset=0     yoffset=8     xadvance=11    page=0  chnl=15
char id=117  x=127   y=23    width=16    height=17    xoffset=1     yoffset=12    xadvance=19    page=1  chnl=15
char id=118  x=109   y=23    width=17    height=17    xoffset=0     yoffset=12    xadvance=17    page=1  chnl=15
char id=119  x=0     y=238   width=27    height=17    xoffset=-1    yoffset=12    xadvance=25    page=0  chnl=15
char id=120  x=0     y=23    width=18    height=17    xoffset=0     yoffset=12    xadvance=18    page=1  chnl=15
char id=121  x=18    y=119   width=17    height=24    xoffset=0     yoffset=12    xadvance=17    page=0  chnl=15
char id=122  x=240   y=0     width=14    height=17    xoffset=1     yoffset=12    xadvance=16    page=1  chnl=15
char id=123  x=36    y=0     width=12    height=30    xoffset=0     yoffset=6     xadvance=12    page=0  chnl=15
char id=124  x=121   y=0     width=5     height=30    xoffset=2     yoffset=6     xadvance=9     page=0  chnl=15
char id=125  x=49    y=0     width=12    height=30    xoffset=0     yoffset=6     xadvance=12    page=0  chnl=15
char id=126  x=158   y=41    width=17    height=6     xoffset=1     yoffset=16    xadvance=19    page=1  chnl=15
char id=160  x=253   y=0     width=1     height=1     xoffset=0     yoffset=0     xadvance=9     page=0  chnl=15
char id=161  x=148   y=0     width=6     height=22    xoffset=2     yoffset=12    xadvance=10    page=1  chnl=15
char id=162  x=99    y=211   width=18    height=22    xoffset=0     yoffset=7     xadvance=18    page=0  chnl=15
char id=163  x=156   y=209   width=18    height=22    xoffset=0     yoffset=7     xadvance=18    page=0  chnl=15
char id=164  x=221   y=0     width=18    height=17    xoffset=0     yoffset=10    xadvance=18    page=1  chnl=15
char id=165  x=175   y=208   width=18    height=22    xoffset=0     yoffset=7     xadvance=18    page=0  chnl=15
char id=166  x=115   y=0     width=5     height=30    xoffset=2     yoffset=6     xadvance=9     page=0  chnl=15
char id=167  x=12    y=92    width=17    height=26    xoffset=0     yoffset=7     xadvance=18    page=0  chnl=15
char id=168  x=222   y=34    width=11    height=4     xoffset=0     yoffset=7     xadvance=11    page=1  chnl=15
char id=169  x=77    y=165   width=24    height=22    xoffset=0     yoffset=7     xadvance=24    page=0  chnl=15
char id=170  x=61    y=41    width=12    height=12    xoffset=0     yoffset=7     xadvance=12    page=1  chnl=15
char id=171  x=0     y=41    width=16    height=14    xoffset=1     yoffset=14    xadvance=18    page=1  chnl=15
char id=172  x=108   y=41    width=17    height=10    xoffset=1     yoffset=17    xadvance=19    page=1  chnl=15
char id=173  x=212   y=34    width=9     height=5     xoffset=1     yoffset=19    xadvance=11    page=1  chnl=15
char id=174  x=52    y=168   width=24    height=22    xoffset=0     yoffset=7     xadvance=24    page=0  chnl=15
char id=175  x=56    y=165   width=20    height=2     xoffset=-1    yoffset=5     xadvance=18    page=0  chnl=15
char id=176  x=96    y=41    width=11    height=11    xoffset=1     yoffset=7     xadvance=13    page=1  chnl=15
char id=177  x=99    y=234   width=17    height=21    xoffset=0     yoffset=8     xadvance=18    page=0  chnl=15
char id=178  x=244   y=18    width=11    height=12    xoffset=0     yoffset=7     xadvance=11    page=1  chnl=15
char id=179  x=74    y=41    width=11    height=12    xoffset=0     yoffset=7     xadvance=11    page=1  chnl=15
char id=180  x=176   y=38    width=9     height=6     xoffset=1     yoffset=6     xadvance=11    page=1  chnl=15
char id=181  x=87    y=116   width=16    height=24    xoffset=1     yoffset=12    xadvance=18    page=0  chnl=15
char id=182  x=30    y=92    width=16    height=26    xoffset=1     yoffset=7     xadvance=18    page=0  chnl=15
char id=183  x=196   y=36    width=5     height=6     xoffset=2     yoffset=16    xadvance=11    page=1  chnl=15
char id=184  x=150   y=41    width=7     height=8     xoffset=1     yoffset=28    xadvance=10    page=1  chnl=15
char id=185  x=86    y=41    width=9     height=12    xoffset=1     yoffset=7     xadvance=11    page=1  chnl=15
char id=186  x=48    y=41    width=12    height=12    xoffset=0     yoffset=7     xadvance=12    page=1  chnl=15
char id=187  x=227   y=18    width=16    height=14    xoffset=1     yoffset=14    xadvance=18    page=1  chnl=15
char id=188  x=26    y=168   width=25    height=22    xoffset=1     yoffset=7     xadvance=27    page=0  chnl=15
char id=189  x=0     y=169   width=25    height=22    xoffset=1     yoffset=7     xadvance=27    page=0  chnl=15
char id=190  x=211   y=138   width=25    height=22    xoffset=1     yoffset=7     xadvance=27    page=0  chnl=15
char id=191  x=232   y=207   width=18    height=22    xoffset=1     yoffset=12    xadvance=20    page=0  chnl=15
char id=192  x=223   y=0     width=23    height=29    xoffset=0     yoffset=0     xadvance=23    page=0  chnl=15
char id=193  x=127   y=0     width=23    height=29    xoffset=0     yoffset=0     xadvance=23    page=0  chnl=15
char id=194  x=151   y=0     width=23    height=29    xoffset=0     yoffset=0     xadvance=23    page=0  chnl=15
char id=195  x=175   y=0     width=23    height=29    xoffset=0     yoffset=0     xadvance=23    page=0  chnl=15
char id=196  x=144   y=60    width=23    height=27    xoffset=0     yoffset=2     xadvance=23    page=0  chnl=15
char id=197  x=199   y=0     width=23    height=29    xoffset=0     yoffset=0     xadvance=23    page=0  chnl=15
char id=198  x=152   y=139   width=31    height=22    xoffset=0     yoffset=7     xadvance=32    page=0  chnl=15
char id=199  x=92    y=31    width=22    height=29    xoffset=1     yoffset=7     xadvance=23    page=0  chnl=15
char id=200  x=0     y=62    width=18    height=29    xoffset=2     yoffset=0     xadvance=21    page=0  chnl=15
char id=201  x=19    y=62    width=18    height=29    xoffset=2     yoffset=0     xadvance=21    page=0  chnl=15
char id=202  x=219   y=30    width=18    height=29    xoffset=2     yoffset=0     xadvance=21    page=0  chnl=15
char id=203  x=232   y=60    width=18    height=27    xoffset=2     yoffset=2     xadvance=21    page=0  chnl=15
char id=204  x=62    y=61    width=9     height=29    xoffset=-1    yoffset=0     xadvance=8     page=0  chnl=15
char id=205  x=52    y=61    width=9     height=29    xoffset=1     yoffset=0     xadvance=8     page=0  chnl=15
char id=206  x=38    y=61    width=13    height=29    xoffset=-2    yoffset=0     xadvance=8     page=0  chnl=15
char id=207  x=0     y=92    width=11    height=27    xoffset=-1    yoffset=2     xadvance=8     page=0  chnl=15
char id=208  x=196   y=161   width=22    height=22    xoffset=0     yoffset=7     xadvance=23    page=0  chnl=15
char id=209  x=199   y=30    width=19    height=29    xoffset=1     yoffset=0     xadvance=22    page=0  chnl=15
char id=210  x=69    y=31    width=22    height=29    xoffset=1     yoffset=0     xadvance=24    page=0  chnl=15
char id=211  x=46    y=31    width=22    height=29    xoffset=1     yoffset=0     xadvance=24    page=0  chnl=15
char id=212  x=23    y=31    width=22    height=29    xoffset=1     yoffset=0     xadvance=24    page=0  chnl=15
char id=213  x=0     y=32    width=22    height=29    xoffset=1     yoffset=0     xadvance=24    page=0  chnl=15
char id=214  x=168   y=60    width=22    height=27    xoffset=1     yoffset=2     xadvance=24    page=0  chnl=15
char id=215  x=37    y=23    width=17    height=17    xoffset=1     yoffset=9     xadvance=19    page=1  chnl=15
char id=216  x=47    y=91    width=23    height=24    xoffset=1     yoffset=6     xadvance=25    page=0  chnl=15
char id=217  x=178   y=30    width=20    height=29    xoffset=1     yoffset=0     xadvance=22    page=0  chnl=15
char id=218  x=157   y=30    width=20    height=29    xoffset=1     yoffset=0     xadvance=22    page=0  chnl=15
char id=219  x=115   y=31    width=20    height=29    xoffset=1     yoffset=0     xadvance=22    page=0  chnl=15
char id=220  x=191   y=60    width=20    height=27    xoffset=1     yoffset=2     xadvance=22    page=0  chnl=15
char id=221  x=136   y=30    width=20    height=29    xoffset=0     yoffset=0     xadvance=20    page=0  chnl=15
char id=222  x=80    y=214   width=18    height=22    xoffset=2     yoffset=7     xadvance=21    page=0  chnl=15
char id=223  x=0     y=145   width=18    height=23    xoffset=2     yoffset=6     xadvance=20    page=0  chnl=15
char id=224  x=71    y=91    width=19    height=24    xoffset=0     yoffset=5     xadvance=18    page=0  chnl=15
char id=225  x=131   y=89    width=19    height=24    xoffset=0     yoffset=5     xadvance=18    page=0  chnl=15
char id=226  x=91    y=90    width=19    height=24    xoffset=0     yoffset=5     xadvance=18    page=0  chnl=15
char id=227  x=111   y=90    width=19    height=24    xoffset=0     yoffset=5     xadvance=18    page=0  chnl=15
char id=228  x=41    y=215   width=19    height=22    xoffset=0     yoffset=7     xadvance=18    page=0  chnl=15
char id=229  x=212   y=60    width=19    height=27    xoffset=0     yoffset=2     xadvance=18    page=0  chnl=15
char id=230  x=28    y=238   width=27    height=17    xoffset=0     yoffset=12    xadvance=28    page=0  chnl=15
char id=231  x=70    y=116   width=16    height=24    xoffset=1     yoffset=12    xadvance=18    page=0  chnl=15
char id=232  x=121   y=115   width=16    height=24    xoffset=1     yoffset=5     xadvance=18    page=0  chnl=15
char id=233  x=36    y=119   width=16    height=24    xoffset=1     yoffset=5     xadvance=18    page=0  chnl=15
char id=234  x=53    y=116   width=16    height=24    xoffset=1     yoffset=5     xadvance=18    page=0  chnl=15
char id=235  x=17    y=0     width=16    height=22    xoffset=1     yoffset=7     xadvance=18    page=1  chnl=15
char id=236  x=236   y=113   width=9     height=24    xoffset=-1    yoffset=5     xadvance=10    page=0  chnl=15
char id=237  x=226   y=113   width=9     height=24    xoffset=2     yoffset=5     xadvance=10    page=0  chnl=15
char id=238  x=241   y=88    width=12    height=24    xoffset=-1    yoffset=5     xadvance=10    page=0  chnl=15
char id=239  x=242   y=161   width=11    height=22    xoffset=-1    yoffset=7     xadvance=10    page=0  chnl=15
char id=240  x=19    y=144   width=18    height=23    xoffset=1     yoffset=6     xadvance=20    page=0  chnl=15
char id=241  x=169   y=88    width=17    height=24    xoffset=1     yoffset=5     xadvance=19    page=0  chnl=15
char id=242  x=187   y=88    width=17    height=24    xoffset=1     yoffset=5     xadvance=19    page=0  chnl=15
char id=243  x=205   y=88    width=17    height=24    xoffset=1     yoffset=5     xadvance=19    page=0  chnl=15
char id=244  x=223   y=88    width=17    height=24    xoffset=1     yoffset=5     xadvance=19    page=0  chnl=15
char id=245  x=0     y=120   width=17    height=24    xoffset=1     yoffset=5     xadvance=19    page=0  chnl=15
char id=246  x=209   y=231   width=17    height=22    xoffset=1     yoffset=7     xadvance=19    page=0  chnl=15
char id=247  x=19    y=23    width=17    height=17    xoffset=0     yoffset=11    xadvance=18    page=1  chnl=15
char id=248  x=155   y=0     width=20    height=19    xoffset=0     yoffset=11    xadvance=20    page=1  chnl=15
char id=249  x=138   y=114   width=16    height=24    xoffset=1     yoffset=5     xadvance=19    page=0  chnl=15
char id=250  x=155   y=113   width=16    height=24    xoffset=1     yoffset=5     xadvance=19    page=0  chnl=15
char id=251  x=172   y=113   width=16    height=24    xoffset=1     yoffset=5     xadvance=19    page=0  chnl=15
char id=252  x=0     y=0     width=16    height=22    xoffset=1     yoffset=7     xadvance=19    page=1  chnl=15
char id=253  x=0     y=0     width=17    height=31    xoffset=0     yoffset=5     xadvance=17    page=0  chnl=15
char id=254  x=18    y=0     width=17    height=30    xoffset=2     yoffset=6     xadvance=20    page=0  chnl=15
char id=255  x=238   y=30    width=17    height=29    xoffset=0     yoffset=7     xadvance=17    page=0  chnl=15
kernings count=92
kerning first=32  second=65  amount=-1  
kerning first=32  second=89  amount=-1  
kerning first=121 second=46  amount=-2  
kerning first=121 second=44  amount=-2  
kerning first=119 second=46  amount=-1  
kerning first=119 second=44  amount=-1  
kerning first=118 second=46  amount=-2  
kerning first=118 second=44  amount=-2  
kerning first=49  second=49  amount=-2  
kerning first=65  second=32  amount=-1  
kerning first=65  second=84  amount=-2  
kerning first=65  second=86  amount=-2  
kerning first=65  second=87  amount=-2  
kerning first=65  second=89  amount=-3  
kerning first=65  second=118 amount=-1  
kerning first=65  second=119 amount=-1  
kerning first=65  second=121 amount=-1  
kerning first=114 second=46  amount=-2  
kerning first=70  second=44  amount=-4  
kerning first=70  second=46  amount=-4  
kerning first=70  second=65  amount=-2  
kerning first=76  second=32  amount=-1  
kerning first=76  second=84  amount=-2  
kerning first=76  second=86  amount=-2  
kerning first=76  second=87  amount=-2  
kerning first=76  second=89  amount=-3  
kerning first=76  second=121 amount=-1  
kerning first=114 second=44  amount=-2  
kerning first=80  second=32  amount=-1  
kerning first=80  second=44  amount=-4  
kerning first=80  second=46  amount=-4  
kerning first=80  second=65  amount=-2  
kerning first=82  second=86  amount=-1  
kerning first=82  second=87  amount=-1  
kerning first=82  second=89  amount=-1  
kerning first=84  second=44  amount=-4  
kerning first=84  second=45  amount=-2  
kerning first=84  second=46  amount=-4  
kerning first=84  second=58  amount=-4  
kerning first=84  second=59  amount=-4  
kerning first=84  second=65  amount=-2  
kerning first=84  second=79  amount=-1  
kerning first=84  second=97  amount=-2  
kerning first=84  second=99  amount=-2  
kerning first=84  second=101 amount=-2  
kerning first=84  second=105 amount=-1  
kerning first=84  second=111 amount=-2  
kerning first=84  second=114 amount=-2  
kerning first=84  second=115 amount=-2  
kerning first=84  second=117 amount=-2  
kerning first=84  second=119 amount=-2  
kerning first=84  second=121 amount=-2  
kerning first=86  second=44  amount=-3  
kerning first=86  second=45  amount=-2  
kerning first=86  second=46  amount=-3  
kerning first=86  second=58  amount=-2  
kerning first=86  second=59  amount=-2  
kerning first=86  second=65  amount=-2  
kerning first=86  second=97  amount=-2  
kerning first=86  second=101 amount=-2  
kerning first=86  second=105 amount=-1  
kerning first=86  second=111 amount=-2  
kerning first=86  second=114 amount=-2  
kerning first=86  second=117 amount=-1  
kerning first=86  second=121 amount=-1  
kerning first=87  second=44  amount=-2  
kerning first=87  second=45  amount=-1  
kerning first=87  second=46  amount=-2  
kerning first=87  second=58  amount=-1  
kerning first=87  second=59  amount=-1  
kerning first=87  second=65  amount=-2  
kerning first=87  second=97  amount=-1  
kerning first=87  second=101 amount=-1  
kerning first=89  second=118 amount=-2  
kerning first=87  second=111 amount=-1  
kerning first=87  second=114 amount=-1  
kerning first=87  second=117 amount=-1  
kerning first=87  second=121 amount=-1  
kerning first=89  second=32  amount=-1  
kerning first=89  second=44  amount=-4  
kerning first=89  second=45  amount=-2  
kerning first=89  second=46  amount=-4  
kerning first=89  second=58  amount=-2  
kerning first=89  second=59  amount=-2  
kerning first=89  second=65  amount=-3  
kerning first=89  second=97  amount=-2  
kerning first=89  second=101 amount=-2  
kerning first=89  second=105 amount=-1  
kerning first=89  second=111 amount=-2  
kerning first=89  second=112 amount=-2  
kerning first=89  second=113 amount=-2  
kerning first=89  second=117 amount=-2  
